Engine\Binaries\ThirdParty\Ogg\Win32\VS2013\libogg.dll	13.01.2015 09:16:25
Engine\Binaries\ThirdParty\Vorbis\Win32\VS2013\libvorbis.dll	13.01.2015 09:17:29
Engine\Binaries\ThirdParty\Vorbis\Win32\VS2013\libvorbisfile.dll	13.01.2015 09:17:29
Engine\Binaries\ThirdParty\PhysX\APEX-1.3\Win32\VS2013\ApexFrameworkPROFILE_x86.dll	13.01.2015 09:16:34
Engine\Binaries\ThirdParty\PhysX\APEX-1.3\Win32\VS2013\APEX_ClothingPROFILE_x86.dll	13.01.2015 09:16:30
Engine\Binaries\ThirdParty\PhysX\APEX-1.3\Win32\VS2013\APEX_DestructiblePROFILE_x86.dll	13.01.2015 09:16:31
Engine\Binaries\ThirdParty\PhysX\APEX-1.3\Win32\VS2013\APEX_LegacyPROFILE_x86.dll	13.01.2015 09:16:34
Engine\Binaries\ThirdParty\PhysX\APEX-1.3\Win32\VS2013\APEX_LoaderPROFILE_x86.dll	13.01.2015 09:16:34
Engine\Binaries\ThirdParty\PhysX\APEX-1.3\Win32\VS2013\APEX_ParticlesPROFILE_x86.dll	13.01.2015 09:16:34
Engine\Binaries\ThirdParty\PhysX\PhysX-3.3\Win32\VS2013\nvToolsExt32_1.dll	13.01.2015 09:16:40
Engine\Binaries\ThirdParty\PhysX\PhysX-3.3\Win32\VS2013\PhysX3CommonPROFILE_x86.dll	13.01.2015 09:16:43
Engine\Binaries\ThirdParty\PhysX\PhysX-3.3\Win32\VS2013\PhysX3CookingPROFILE_x86.dll	13.01.2015 09:16:43
Engine\Binaries\ThirdParty\PhysX\PhysX-3.3\Win32\VS2013\PhysX3GpuPROFILE_x86.dll	13.01.2015 09:16:47
Engine\Binaries\ThirdParty\PhysX\PhysX-3.3\Win32\VS2013\PhysX3PROFILE_x86.dll	13.01.2015 09:16:50
ggj\Binaries\Win32\ggj-Win32-Shipping.exe	25.01.2015 14:04:51
ggj.exe	25.01.2015 14:05:31
Engine\Extras\Redist\en-us\UE4PrereqSetup_x86.exe	13.01.2015 10:27:05
Engine\Build\build.properties	20.01.2015 19:28:08
